{
    "name": "SEO",
    "alias": "seo",
    "description": "",
    "keywords": [],
    "active": 0,
    "order": 0,
    "providers": [
        "Modules\\SEO\\Providers\\SEOServiceProvider"
    ],
    "aliases": [],
    "files": [
        "start.php"
    ]
}