{
    "name": "History",
    "alias": "history",
    "description": "Log and Database History Revision Module",
    "keywords": ["admin"],
    "active": 1,
    "order": 0,
    "providers": [
        "Modules\\History\\Providers\\HistoryServiceProvider"
    ],
    "aliases":{},
    "files": [
        "start.php"
    ]
}