{
    "name": "Push Notification",
    "alias": "pushnotification",
    "description": "Push Notification for Android, iOS",
    "keywords": [
        "admin"
    ],
    "active": 0,
    "order": 0,
    "providers": [
        "Modules\\Pushnotification\\Providers\\PushnotificationServiceProvider"
    ],
    "aliases": [],
    "files": [
        "start.php"
    ]
}