{
    "name": "RestTwitter",
    "alias": "resttwitter",
    "description": "",
    "keywords": [],
    "active": 0,
    "order": 0,
    "providers": [
        "Modules\\RestTwitter\\Providers\\RestTwitterServiceProvider"
    ],
    "aliases": [],
    "files": [
        "start.php"
    ]
}