{
    "name": "WebShop",
    "alias": "webshop",
    "description": "",
    "keywords": [],
    "active": 0,
    "order": 0,
    "providers": [
        "Modules\\WebShop\\Providers\\WebShopServiceProvider"
    ],
    "aliases": [],
    "files": [
        "start.php"
    ]
}