{
    "name": "ModuleGenerator",
    "alias": "modulegenerator",
    "description": "",
    "keywords": [],
    "active": 0,
    "order": 0,
    "providers": [
        "Modules\\ModuleGenerator\\Providers\\ModuleGeneratorServiceProvider"
    ],
    "aliases": [],
    "files": [
        "start.php"
    ]
}