{
    "name": "EAV",
    "alias": "eav",
    "description": "Entity-Attribute-Value Module",
    "keywords": [
        "admin",
        "front",
        "dev"
    ],
    "active": 1,
    "order": 0,
    "providers": [
        "Modules\\EAV\\Providers\\EAVServiceProvider"
    ],
    "aliases": [],
    "files": [
        "start.php"
    ]
}