{
    "name": "DigitalOcean",
    "alias": "digitalocean",
    "description": "DigitalOcean Module",
    "keywords": ["admin"],
    "active": 0,
    "order": 0,
    "providers": [
        "Modules\\DigitalOcean\\Providers\\DigitalOceanServiceProvider"
    ],
    "aliases": [],
    "files": [
        "start.php"
    ]
}