{
    "name": "Shopping Cart",
    "alias": "shoppingcart",
    "description": "Shopping Cart Module",
    "keywords": [
        "admin",
        "front"
    ],
    "active": 0,
    "order": 0,
    "providers": [
        "Modules\\ShoppingCart\\Providers\\ShoppingCartServiceProvider"
    ],
    "aliases": [],
    "files": [
        "start.php"
    ]
}